<?xml version="1.0" encoding="utf-8"?>
<!-- Generator: Adobe Illustrator 19.0.0, SVG Export Plug-In . SVG Version: 6.00 Build 0)  -->
<svg version="1.1" id="Layer_1" xmlns="http://www.w3.org/2000/svg" xmlns:xlink="http://www.w3.org/1999/xlink" x="0px" y="0px"
	 viewBox="0 0 190 60" style="enable-background:new 0 0 190 60;" xml:space="preserve">
<style type="text/css">
	.st0{fill:#FFFFFF;}
</style>
<g>
	<g>
		<path class="st0" d="M57.7,30.7v15.7h11.4V50l-15.2,0V30.7H57.7z"/>
		<path class="st0" d="M92.6,34.3H81.7v4.3h9V42h-9v4.4h10.8V50H77.9V30.7h14.7V34.3z"/>
		<path class="st0" d="M114.8,34.5c-0.8-0.4-2-0.6-3.6-0.6c-2.3,0-3.8,0.5-4.6,1.4c-0.8,1-1.2,2.7-1.2,5.1c0,2.5,0.4,4.2,1.3,5.2
			c0.8,0.9,2.3,1.3,4.6,1.3c2.2,0,3.8-0.4,4.6-1.3c0.6-0.7,1-1.8,1.2-3.4h-5.7v-3.5h9.7v1.7c0,3.5-0.8,6.1-2.4,7.7
			c-1.5,1.6-4,2.4-7.3,2.4c-3.3,0-5.7-0.8-7.3-2.4c-1.6-1.6-2.4-4.2-2.4-7.7c0-3.4,0.7-5.9,2.2-7.5c1.6-1.7,4-2.6,7.5-2.6
			c2.2,0,4,0.3,5.3,1c1.6,0.8,2.7,2,3.5,3.7l-3.5,1.5C116.1,35.5,115.6,34.9,114.8,34.5z"/>
		<path class="st0" d="M127.6,50l8.7-19.2h4.2l8.6,19.2h-4.2l-2.2-4.9H134l-2.2,4.9H127.6z M141.2,41.8l-2.9-6.4l-2.9,6.4H141.2z"/>
		<path class="st0" d="M156.4,30.7l6.6,14.7l6.6-14.7h4.2L165,50h-4.2l-8.7-19.2H156.4z"/>
		<path class="st0" d="M185.6,30.7V50h-3.9V30.7H185.6z"/>
	</g>
	<g>
		<g>
			<path id="XMLID_55_" class="st0" d="M4.4,40.9C7.2,11.8,25.3,24.7,42,9.5c0,0,0.6,8.2-4.5,11.8C22,32.1,13.8,19.7,4.4,40.9z"/>
			<path id="XMLID_54_" class="st0" d="M4.8,43.9c5.2-13.5,15-11,32.8-14.1c0,0-0.4,5.8-8.3,8.1C22.1,39.9,14.6,33.8,4.8,43.9z"/>
			<path id="XMLID_53_" class="st0" d="M4.8,46.9c0,0,3.1-5.6,9.9-4.6c4.4,0.7,2,1.1,9,1c0.3,0,0.5,0.3,0.4,0.5
				c-0.2,1.2-1.1,4.1-4.2,4.5C18.3,49.3,10.1,43.5,4.8,46.9z"/>
		</g>
	</g>
</g>
</svg>
